module c

go 1.21.1

require github.com/charmbracelet/lipgloss v0.8.0

require (
	github.com/aymanbagabas/go-osc52/v2 v2.0.1 // indirect
	github.com/lucasb-eyer/go-colorful v1.2.0 // indirect
	github.com/mattn/go-isatty v0.0.18 // indirect
	github.com/mattn/go-runewidth v0.0.14 // indirect
	github.com/muesli/reflow v0.3.0 // indirect
	github.com/muesli/termenv v0.15.2 // indirect
	github.com/rivo/uniseg v0.2.0 // indirect
	golang.org/x/sys v0.7.0 // indirect
)
